{
  "revision_id": "c26ac15623e396fd270a6accd07b09fcfef483a8956fc43e484d1c307ca1f1e9",
  "name": "base",
  "run_list": [
    "recipe[base::default]"
  ],
  "included_policy_locks": [

  ],
  "cookbook_locks": {
    "apt": {
      "version": "6.1.4",
      "identifier": "f57c3a3229774207acdb599d61f907ea3d656ff0",
      "dotted_decimal_identifier": "69097958685636418.2160382938276345.8702633799664",
      "cache_key": "apt-6.1.4-supermarket.chef.io",
      "origin": "https://supermarket.chef.io:443/api/v1/cookbooks/apt/versions/6.1.4/download",
      "source_options": {
        "artifactserver": "https://supermarket.chef.io:443/api/v1/cookbooks/apt/versions/6.1.4/download",
        "version": "6.1.4"
      }
    },
    "ark": {
      "version": "4.0.0",
      "identifier": "5d82df37c1f7d6f64b0afe4eb8f8affbad642025",
      "dotted_decimal_identifier": "26321068058867670.69325354859149560.193495480672293",
      "cache_key": "ark-4.0.0-supermarket.chef.io",
      "origin": "https://supermarket.chef.io:443/api/v1/cookbooks/ark/versions/4.0.0/download",
      "source_options": {
        "artifactserver": "https://supermarket.chef.io:443/api/v1/cookbooks/ark/versions/4.0.0/download",
        "version": "4.0.0"
      }
    },
    "base": {
      "version": "0.5.0",
      "identifier": "5cb9b5d720f2d90748d0d998707a9828d26df139",
      "dotted_decimal_identifier": "26099888506860249.2050386678018170.167301096534329",
      "cache_key": "base-0.5.0-supermarket.chef.io",
      "origin": "https://supermarket.chef.io:443/api/v1/cookbooks/base/versions/0.5.0/download",
      "source_options": {
        "artifactserver": "https://supermarket.chef.io:443/api/v1/cookbooks/base/versions/0.5.0/download",
        "version": "0.5.0"
      }
    },
    "build-essential": {
      "version": "8.2.1",
      "identifier": "4b9d5c72796184085681d3eefd625c90b79530a8",
      "dotted_decimal_identifier": "21283643636408708.2346915420110178.101776625053864",
      "cache_key": "build-essential-8.2.1-supermarket.chef.io",
      "origin": "https://supermarket.chef.io:443/api/v1/cookbooks/build-essential/versions/8.2.1/download",
      "source_options": {
        "artifactserver": "https://supermarket.chef.io:443/api/v1/cookbooks/build-essential/versions/8.2.1/download",
        "version": "8.2.1"
      }
    },
    "chef_client_updater": {
      "version": "3.6.0",
      "identifier": "bb6d7d6cc65ed70e024d8e55b5020fdb5857452d",
      "dotted_decimal_identifier": "52756206108171991.3943181797668098.17434754368813",
      "cache_key": "chef_client_updater-3.6.0-supermarket.chef.io",
      "origin": "https://supermarket.chef.io:443/api/v1/cookbooks/chef_client_updater/versions/3.6.0/download",
      "source_options": {
        "artifactserver": "https://supermarket.chef.io:443/api/v1/cookbooks/chef_client_updater/versions/3.6.0/download",
        "version": "3.6.0"
      }
    },
    "logrotate": {
      "version": "2.2.1",
      "identifier": "7e5081986d6a92f2ca795b447f3f98450893b823",
      "dotted_decimal_identifier": "35554364603853458.68339566935047999.167422264064035",
      "cache_key": "logrotate-2.2.1-supermarket.chef.io",
      "origin": "https://supermarket.chef.io:443/api/v1/cookbooks/logrotate/versions/2.2.1/download",
      "source_options": {
        "artifactserver": "https://supermarket.chef.io:443/api/v1/cookbooks/logrotate/versions/2.2.1/download",
        "version": "2.2.1"
      }
    },
    "mingw": {
      "version": "2.1.4",
      "identifier": "37b76d310d308cc54853dcc88ec386023bfb02ae",
      "dotted_decimal_identifier": "15682803321352332.55530095435615939.147344154362542",
      "cache_key": "mingw-2.1.4-supermarket.chef.io",
      "origin": "https://supermarket.chef.io:443/api/v1/cookbooks/mingw/versions/2.1.4/download",
      "source_options": {
        "artifactserver": "https://supermarket.chef.io:443/api/v1/cookbooks/mingw/versions/2.1.4/download",
        "version": "2.1.4"
      }
    },
    "nginx": {
      "version": "8.1.6",
      "identifier": "3950c4a59312a57eadd359a6dd4bf8532f74f205",
      "dotted_decimal_identifier": "16132879194198693.35656970319355211.273036162167301",
      "cache_key": "nginx-8.1.6-supermarket.chef.io",
      "origin": "https://supermarket.chef.io:443/api/v1/cookbooks/nginx/versions/8.1.6/download",
      "source_options": {
        "artifactserver": "https://supermarket.chef.io:443/api/v1/cookbooks/nginx/versions/8.1.6/download",
        "version": "8.1.6"
      }
    },
    "nodejs": {
      "version": "6.0.0",
      "identifier": "7e66fa5599cbf88a3e714617df4abca4edec7cd1",
      "dotted_decimal_identifier": "35579072429542392.38912203014266698.207416552357073",
      "cache_key": "nodejs-6.0.0-supermarket.chef.io",
      "origin": "https://supermarket.chef.io:443/api/v1/cookbooks/nodejs/versions/6.0.0/download",
      "source_options": {
        "artifactserver": "https://supermarket.chef.io:443/api/v1/cookbooks/nodejs/versions/6.0.0/download",
        "version": "6.0.0"
      }
    },
    "ohai": {
      "version": "5.2.5",
      "identifier": "f393ae21b9c53af8a3ee75662fce43f3c2ce5167",
      "dotted_decimal_identifier": "68560795440104762.69986038791417806.74714224415079",
      "cache_key": "ohai-5.2.5-supermarket.chef.io",
      "origin": "https://supermarket.chef.io:443/api/v1/cookbooks/ohai/versions/5.2.5/download",
      "source_options": {
        "artifactserver": "https://supermarket.chef.io:443/api/v1/cookbooks/ohai/versions/5.2.5/download",
        "version": "5.2.5"
      }
    },
    "opsworks_ruby": {
      "version": "1.22.0",
      "identifier": "d4eab0e267c1c2616803ef400c82ca73e797d050",
      "dotted_decimal_identifier": "59930740496253378.27417438849076354.222599155535952",
      "cache_key": "opsworks_ruby-1.22.0-supermarket.chef.io",
      "origin": "https://supermarket.chef.io:443/api/v1/cookbooks/opsworks_ruby/versions/1.22.0/download",
      "source_options": {
        "artifactserver": "https://supermarket.chef.io:443/api/v1/cookbooks/opsworks_ruby/versions/1.22.0/download",
        "version": "1.22.0"
      }
    },
    "ruby-ng": {
      "version": "0.3.0",
      "identifier": "beaeb552a97a20e74cb5e9d143062eeb0c1a0bd3",
      "dotted_decimal_identifier": "53672339374176800.65105063815758598.51587055225811",
      "cache_key": "ruby-ng-0.3.0-supermarket.chef.io",
      "origin": "https://supermarket.chef.io:443/api/v1/cookbooks/ruby-ng/versions/0.3.0/download",
      "source_options": {
        "artifactserver": "https://supermarket.chef.io:443/api/v1/cookbooks/ruby-ng/versions/0.3.0/download",
        "version": "0.3.0"
      }
    },
    "s3_file": {
      "version": "2.8.5",
      "identifier": "c403c984149cd15a044c7f83f053ed2b98234adb",
      "dotted_decimal_identifier": "55173259474541777.25337474507337811.260771491826395",
      "cache_key": "s3_file-2.8.5-supermarket.chef.io",
      "origin": "https://supermarket.chef.io:443/api/v1/cookbooks/s3_file/versions/2.8.5/download",
      "source_options": {
        "artifactserver": "https://supermarket.chef.io:443/api/v1/cookbooks/s3_file/versions/2.8.5/download",
        "version": "2.8.5"
      }
    },
    "seven_zip": {
      "version": "2.0.2",
      "identifier": "8e6795446cfa8e0a4a09cef4d5d35eb2d522a24d",
      "dotted_decimal_identifier": "40083337488693902.2896155754419667.104122173006413",
      "cache_key": "seven_zip-2.0.2-supermarket.chef.io",
      "origin": "https://supermarket.chef.io:443/api/v1/cookbooks/seven_zip/versions/2.0.2/download",
      "source_options": {
        "artifactserver": "https://supermarket.chef.io:443/api/v1/cookbooks/seven_zip/versions/2.0.2/download",
        "version": "2.0.2"
      }
    },
    "sudo": {
      "version": "5.4.4",
      "identifier": "4a4001d9714ca71ad2b10d4bca500d96d9d61b0a",
      "dotted_decimal_identifier": "20899524963814567.7550007268592208.14941550942986",
      "cache_key": "sudo-5.4.4-supermarket.chef.io",
      "origin": "https://supermarket.chef.io:443/api/v1/cookbooks/sudo/versions/5.4.4/download",
      "source_options": {
        "artifactserver": "https://supermarket.chef.io:443/api/v1/cookbooks/sudo/versions/5.4.4/download",
        "version": "5.4.4"
      }
    },
    "windows": {
      "version": "4.3.4",
      "identifier": "a6eda591ed0174623573c66fe385e98832c3ed16",
      "dotted_decimal_identifier": "46986141507584372.27643319084376965.256771176525078",
      "cache_key": "windows-4.3.4-supermarket.chef.io",
      "origin": "https://supermarket.chef.io:443/api/v1/cookbooks/windows/versions/4.3.4/download",
      "source_options": {
        "artifactserver": "https://supermarket.chef.io:443/api/v1/cookbooks/windows/versions/4.3.4/download",
        "version": "4.3.4"
      }
    },
    "yarn": {
      "version": "0.4.3",
      "identifier": "a8fb4b1297b3bc507266a8f75ff017826b2e0182",
      "dotted_decimal_identifier": "47564095940441020.22643783383867376.25848911364482",
      "cache_key": "yarn-0.4.3-supermarket.chef.io",
      "origin": "https://supermarket.chef.io:443/api/v1/cookbooks/yarn/versions/0.4.3/download",
      "source_options": {
        "artifactserver": "https://supermarket.chef.io:443/api/v1/cookbooks/yarn/versions/0.4.3/download",
        "version": "0.4.3"
      }
    },
    "yum-epel": {
      "version": "4.5.0",
      "identifier": "dad6a6c002700a1ae06443e61afaf9abf5b6e2ab",
      "dotted_decimal_identifier": "61597556597223434.7565070634982138.274516957127339",
      "cache_key": "yum-epel-4.5.0-supermarket.chef.io",
      "origin": "https://supermarket.chef.io:443/api/v1/cookbooks/yum-epel/versions/4.5.0/download",
      "source_options": {
        "artifactserver": "https://supermarket.chef.io:443/api/v1/cookbooks/yum-epel/versions/4.5.0/download",
        "version": "4.5.0"
      }
    },
    "zypper": {
      "version": "0.4.0",
      "identifier": "28279427bc93cb2ad2e29f09545c7dc5aa17c6dc",
      "dotted_decimal_identifier": "11302516343739339.12053819794478172.138287915714268",
      "cache_key": "zypper-0.4.0-supermarket.chef.io",
      "origin": "https://supermarket.chef.io:443/api/v1/cookbooks/zypper/versions/0.4.0/download",
      "source_options": {
        "artifactserver": "https://supermarket.chef.io:443/api/v1/cookbooks/zypper/versions/0.4.0/download",
        "version": "0.4.0"
      }
    }
  },
  "default_attributes": {

  },
  "override_attributes": {

  },
  "solution_dependencies": {
    "Policyfile": [
      [
        "apt",
        "= 6.1.4"
      ],
      [
        "ark",
        "= 4.0.0"
      ],
      [
        "base",
        "= 0.5.0"
      ],
      [
        "build-essential",
        "= 8.2.1"
      ],
      [
        "chef_client_updater",
        "= 3.6.0"
      ],
      [
        "logrotate",
        "= 2.2.1"
      ],
      [
        "mingw",
        "= 2.1.4"
      ],
      [
        "nginx",
        "= 8.1.6"
      ],
      [
        "nodejs",
        "= 6.0.0"
      ],
      [
        "ohai",
        "= 5.2.5"
      ],
      [
        "opsworks_ruby",
        "= 1.22.0"
      ],
      [
        "ruby-ng",
        "= 0.3.0"
      ],
      [
        "s3_file",
        "= 2.8.5"
      ],
      [
        "seven_zip",
        "= 2.0.2"
      ],
      [
        "sudo",
        "= 5.4.4"
      ],
      [
        "windows",
        "= 4.3.4"
      ],
      [
        "yarn",
        "= 0.4.3"
      ],
      [
        "yum-epel",
        "= 4.5.0"
      ],
      [
        "zypper",
        "= 0.4.0"
      ]
    ],
    "dependencies": {
      "apt (6.1.4)": [

      ],
      "ark (4.0.0)": [
        [
          "build-essential",
          ">= 0.0.0"
        ],
        [
          "seven_zip",
          ">= 0.0.0"
        ]
      ],
      "base (0.5.0)": [
        [
          "apt",
          ">= 0.0.0"
        ]
      ],
      "build-essential (8.2.1)": [
        [
          "seven_zip",
          ">= 0.0.0"
        ],
        [
          "mingw",
          ">= 1.1.0"
        ]
      ],
      "chef_client_updater (3.6.0)": [

      ],
      "logrotate (2.2.1)": [

      ],
      "mingw (2.1.4)": [
        [
          "seven_zip",
          ">= 0.0.0"
        ]
      ],
      "nginx (8.1.6)": [
        [
          "build-essential",
          ">= 5.0.0"
        ],
        [
          "ohai",
          ">= 4.1.0"
        ],
        [
          "yum-epel",
          ">= 0.0.0"
        ],
        [
          "zypper",
          ">= 0.0.0"
        ]
      ],
      "nodejs (6.0.0)": [
        [
          "build-essential",
          ">= 5.0.0"
        ],
        [
          "ark",
          ">= 2.0.2"
        ]
      ],
      "ohai (5.2.5)": [

      ],
      "opsworks_ruby (1.22.0)": [
        [
          "apt",
          "< 7.0.0"
        ],
        [
          "ark",
          "= 4.0.0"
        ],
        [
          "chef_client_updater",
          "~> 3.6.0"
        ],
        [
          "logrotate",
          "= 2.2.1"
        ],
        [
          "nginx",
          "< 9.0.0"
        ],
        [
          "nodejs",
          "< 7.0.0"
        ],
        [
          "ohai",
          "< 5.3.0"
        ],
        [
          "ruby-ng",
          ">= 0.0.0"
        ],
        [
          "s3_file",
          ">= 0.0.0"
        ],
        [
          "seven_zip",
          "~> 2.0"
        ],
        [
          "sudo",
          "= 5.4.4"
        ],
        [
          "windows",
          "< 5.0.0"
        ],
        [
          "yarn",
          ">= 0.0.0"
        ]
      ],
      "ruby-ng (0.3.0)": [
        [
          "apt",
          ">= 0.0.0"
        ],
        [
          "build-essential",
          ">= 0.0.0"
        ]
      ],
      "s3_file (2.8.5)": [

      ],
      "seven_zip (2.0.2)": [
        [
          "windows",
          ">= 1.2.2"
        ]
      ],
      "sudo (5.4.4)": [

      ],
      "windows (4.3.4)": [

      ],
      "yarn (0.4.3)": [
        [
          "apt",
          ">= 0.0.0"
        ]
      ],
      "yum-epel (4.5.0)": [

      ],
      "zypper (0.4.0)": [

      ]
    }
  }
}
